^C:\USERS\WILLIAM272\SOURCE\REPOS\WS.MADLIB\WS.MADLIB\MAIN.CPP
C:\USERS\WILLIAM272\SOURCE\REPOS\WS.MADLIB\WS.MADLIB\DEBUG\VC142.PDB
C:\USERS\WILLIAM272\SOURCE\REPOS\WS.MADLIB\WS.MADLIB\DEBUG\VC142.IDB
C:\USERS\WILLIAM272\SOURCE\REPOS\WS.MADLIB\WS.MADLIB\DEBUG\MAIN.OBJ
